…
``` r
prec_1718 %>% 
  pivot_longer(
    year.x:year.y,
    names_prefix = "year",
    values_to = "year"
  )
```

    ## # A tibble: 24 x 5
    ##    month total.x total.y name   year
    ##    <dbl>   <dbl>   <dbl> <chr> <dbl>
    ##  1     1    2.34    0.96 .x     2017
    ##  2     1    2.34    0.96 .y     2018
    ##  3     2    1.46    5.3  .x     2017
    ##  4     2    1.46    5.3  .y     2018
    ##  5     3    3.57    2.18 .x     2017
    ##  6     3    3.57    2.18 .y     2018
    ##  7     4    3.99    3.2  .x     2017
    ##  8     4    3.99    3.2  .y     2018
    ##  9     5    5.64    9.27 .x     2017
    ## 10     5    5.64    9.27 .y     2018
    ## # … with 14 more rows
…
